#000000
#070707
#0f0f0f
#171717
#1f1f1f
#272727
#2f2f2f
#373737
#3f3f3f
#474747
#4f4f4f
#575757
#5f5f5f
#676767
#6f6f6f
#777777
#7f7f7f
#878787
#8f8f8f
#979797
#9f9f9f
#a7a7a7
#afafaf
#b7b7b7
#bfbfbf
#c7c7c7
#cfcfcf
#d7d7d7
#dfdfdf
#e7e7e7
#efefef
#f7f7f7
#ffffff
#ffdfdf
#ffbfbf
#ffb7b7
#f3a3a3
#e78f8f
#ff9f9f
#db7b7b
#cb6b6b
#ff7f7f
#bf5b5b
#b34f4f
#a73f3f
#ff5f5f
#ff3f3f
#ff1f1f
#0f0000
#1f0000
#2f0000
#3f0000
#4f0000
#550000
#5f0000
#6f0000
#7f0000
#8f0000
#9f0000
#af0000
#bf0000
#cf0000
#df0000
#ef0000
#ff0000
#5d0500
#650b00
#6d1200
#751900
#7e2000
#862700
#8e2e00
#ffdbc7
#ffd3bb
#973600
#ffebdf
#ffe3d3
#ffcfb3
#ffc7a7
#ffbf9b
#ffbb93
#732b00
#a43d00
#ffb383
#f7ab7b
#efa373
#e79b6b
#df9363
#d78b5b
#cf8353
#cb7f4f
#b14500
#b37347
#be4d00
#ab6f43
#bf7b4b
#9b633b
#cb5500
#a36b3f
#875733
#d85d00
#e56500
#8f5f37
#7f532f
#f36d00
#6b4727
#774f2b
#ff8619
#874307
#ff7500
#ffa855
#ff9736
#bfa78f
#ffdcb9
#ffcb97
#ffb975
#ffeedc
#b7a088
#af9880
#a79078
#9f8971
#968169
#8e7961
#5f4323
#9b5b13
#86725a
#7e6a52
#75624a
#6d5a42
#65533b
#5d4b33
#54432b
#4b371b
#4c3c24
#43331b
#3f2f17
#533f1f
#af7b1f
#2b230f
#c39b2f
#332b13
#d7bb43
#ebdb57
#ffffef
#ffffcf
#ffffaf
#ffff8f
#ffff73
#ffff6f
#ffff4f
#ffff2f
#ffff0f
#0f0f00
#2f2f00
#4f4f00
#6f6f00
#8f8f00
#afaf00
#cfcf00
#ffff00
#c7e494
#95ad6b
#647744
#deffa8
#adc880
#7c9258
#4a5a30
#323f1d
#001f00
#003f00
#005f00
#007f00
#009f00
#00bf00
#00df00
#00ff00
#003f3f
#005f5f
#007f7f
#00bfbf
#00ffff
#bfebff
#95ddff
#80d6ff
#6acfff
#55c8ff
#d5f1ff
#aae3ff
#27779f
#2f8fbf
#3fbfff
#1f5f7f
#379ddf
#e9e9f3
#e7e7ff
#c4c4e1
#c6c6ff
#9d9dce
#adadff
#7777bb
#8c8cff
#1b1b34
#2e2e5c
#414183
#5454a7
#7373ff
#5252ff
#3131ff
#1818ff
#000007
#00000f
#00001f
#000027
#000037
#00003f
#00004f
#000052
#00006b
#000084
#00009c
#0000b5
#0000ce
#0000e7
#0000ff
#b76fb7
#cf7fcf
#9f5f9f
#874f87
#6f3f6f
#572f57
#3f1f3f
#ff6fff
#270f27
#3f003f
#5f005f
#7f007f
#9f009f
#bf00bf
#df00df
#ff00ff