<svg xmlns="http://www.w3.org/2000/svg" viewBox="-2 -2 116 116" fill-rule="evenodd" stroke-width="2" stroke-miterlimit="10">
	<path d="M24 8l64-8v48l24-3v51l-16 2v-16a16 16 0 0 0-32 0v28l-16 2v-24a16 16 0 0 0-32 0v16l-16 2v-47l24-3z" stroke="#fff" />
	<path d="M56 20a16 16 0 1 0 16 16a12 12 0 1 1-16-16z" fill="#f52" stroke="#fa5" />
</svg>